<?xml version="1.0" encoding="UTF-8"?>
<svg width="78px" height="78px" viewBox="0 0 78 78" version="1.1" xmlns="http://www.w3.org/2000/svg" xmlns:xlink="http://www.w3.org/1999/xlink">
    <title>Group</title>
    <g id="Page-1" stroke="none" stroke-width="1" fill="none" fill-rule="evenodd">
        <g id="Group" fill-rule="nonzero">
            <path d="M75.5170125,33.7887724 L43.8151412,2.08690118 C42.4888252,0.75118974 40.6843062,0 38.8019568,0 C36.9196074,0 35.1150885,0.75118974 33.7887724,2.08690118 L2.08690118,33.7887724 C0.75118974,35.1150885 0,36.9196074 0,38.8019568 C0,40.6843062 0.75118974,42.4888252 2.08690118,43.8151412 L33.7887724,75.5170125 C35.1150885,76.8527239 36.9196074,77.6039137 38.8019568,77.6039137 C40.6843062,77.6039137 42.4888252,76.8527239 43.8151412,75.5170125 L75.5170125,43.8151412 C76.8527239,42.4888252 77.6039137,40.6843062 77.6039137,38.8019568 C77.6039137,36.9196074 76.8527239,35.1150885 75.5170125,33.7887724 L75.5170125,33.7887724 Z M42.1923763,63.8099229 C41.2911777,64.7274385 40.0590558,65.2442874 38.7729789,65.2442874 C37.486902,65.2442874 36.2547801,64.7274385 35.3535814,63.8099229 L13.7360349,42.1923763 C12.8185193,41.2911777 12.3016704,40.0590558 12.3016704,38.7729789 C12.3016704,37.486902 12.8185193,36.2547801 13.7360349,35.3535814 L35.3535814,13.7360349 C36.2547801,12.8185193 37.486902,12.3016704 38.7729789,12.3016704 C40.0590558,12.3016704 41.2911777,12.8185193 42.1923763,13.7360349 L63.8099229,35.3535814 C64.7274385,36.2547801 65.2442874,37.486902 65.2442874,38.7729789 C65.2442874,40.0590558 64.7274385,41.2911777 63.8099229,42.1923763 L42.1923763,63.8099229 Z" id="Shape" fill="#90D133"></path>
            <path d="M38.6570671,46.3652003 C38.8309348,45.6697297 38.9468466,45.4379061 39.1786701,44.6265237 C39.6423172,43.3514941 39.9320967,42.7139793 40.3957438,41.4969057 L45.5538179,29.3841249 L51.9289657,29.326169 L41.3809939,54.0153777 L35.8751844,54.0153777" id="Path" fill="#4C565C"></path>
            <path d="M41.3809939,54.0153777 L35.8751844,54.0153777 L25.6169921,29.3841249 L32.2819193,29.3841249 L37.2661258,42.1344204 C37.3820376,42.5401117 37.9036406,43.8151412 38.2513759,44.8583472 C38.4252436,45.4379061 38.5411553,45.7276856 38.715023,46.3652003" id="Path" fill="#90D133"></path>
        </g>
    </g>
</svg>